{"data":[{"id":"aa7c16af-ea92-40c0-9004-6887e44c845b","order_number":"ORD-MAR29-QBME","total_amount":35000,"discount_amount":31500,"final_amount":3500,"payment_method":"E_WALLET","status":"COMPLETED","created_at":"2026-03-29T00:00:00.000Z","items":[{"id":"aac1abe9-e781-4e22-80d6-97355e539983","order_id":"aa7c16af-ea92-40c0-9004-6887e44c845b","product_id":"2ba0e15b-0a1c-443e-906f-6d2392051f68","quantity":1,"unit_price":35000,"subtotal":35000,"product":{"id":"2ba0e15b-0a1c-443e-906f-6d2392051f68","name_vi":"Cà Phê Sữa Đá","name_en":"Condensed Milk Coffee","price":35000,"category":"Cà Phê","available":true,"created_at":"2026-03-30T07:10:12.286Z","updated_at":"2026-03-30T07:10:12.286Z"},"toppings":[]}],"vouchers":[]}],"total":191,"page":1,"limit":1,"totalPages":191}